info face="Pigiarniq Heavy" size=-86 bold=0 italic=0 charset="" unicode=1 stretchH=100 smooth=1 aa=2 padding=0,0,0,0 spacing=0,0 outline=0
common lineHeight=123 base=98 scaleW=256 scaleH=256 pages=1 packed=0 alphaChnl=1 redChnl=0 greenChnl=0 blueChnl=0
page id=0 file="overlayfont_0.png"
chars count=5
char id=82   x=0     y=0     width=51    height=67    xoffset=6     yoffset=31    xadvance=58    page=0  chnl=15
char id=101  x=137   y=0     width=45    height=48    xoffset=5     yoffset=51    xadvance=54    page=0  chnl=15
char id=114  x=182   y=0     width=34    height=47    xoffset=6     yoffset=51    xadvance=40    page=0  chnl=15
char id=116  x=103   y=0     width=34    height=59    xoffset=1     yoffset=40    xadvance=35    page=0  chnl=15
char id=121  x=51    y=0     width=52    height=66    xoffset=-1    yoffset=52    xadvance=50    page=0  chnl=15
kernings count=1
kerning first=114 second=101 amount=-3  
