info face="Pigiarniq Heavy" size=-148 bold=0 italic=0 charset="" unicode=1 stretchH=100 smooth=1 aa=2 padding=0,0,0,0 spacing=0,0 outline=0
common lineHeight=212 base=168 scaleW=500 scaleH=250 pages=1 packed=0 alphaChnl=1 redChnl=0 greenChnl=0 blueChnl=0
page id=0 file="question_mark_0.png"
chars count=1
char id=63   x=0     y=0     width=70    height=117   xoffset=2     yoffset=52    xadvance=76    page=0  chnl=15
